{"message":"操作成功！","data":{"list":{"content":[{"id":"51000110000001974901","wfbh":null,"jdslb":null,"jdsbh":null,"gslx":"1","jszh":null,"hpzl":null,"wfgxsj":null,"gsjdsbh":"5104031424593047","gsajmc":"陈国秀机动车行驶超速50%以上案","gscflb":null,"gscfss":null,"gscfyj":null,"gsjsrxm":"陈国秀","gshpzl":"大型汽车","gshphm":"云P39939","gscfjg":"罚款200元","gsjf":null,"gscfbm":"攀枝花市公安局西区分局交通巡逻警察大队","gscfrq":"2019年05月29日","gscfxzqh":null,"gsqymc":null,"gsfrxm":null,"gsshxydm":null,"lczt":null,"scsj":null,"gsrq":null,"gssj":null,"gsr":null,"gsbm":null,"zfsj":null,"gxsj":null,"csbj":null,"gsyw":"01"},{"id":"51000110000001966321","wfbh":null,"jdslb":null,"jdsbh":null,"gslx":"1","jszh":null,"hpzl":null,"wfgxsj":null,"gsjdsbh":"5104032400217105","gsajmc":"樊玉龙机动车行驶超速50%以上案","gscflb":null,"gscfss":null,"gscfyj":null,"gsjsrxm":"樊玉龙","gshpzl":"小型汽车","gshphm":"川DFQ933","gscfjg":"罚款400元","gsjf":null,"gscfbm":"攀枝花市公安局西区分局交通巡逻警察大队","gscfrq":"2019年05月28日","gscfxzqh":null,"gsqymc":null,"gsfrxm":null,"gsshxydm":null,"lczt":null,"scsj":null,"gsrq":null,"gssj":null,"gsr":null,"gsbm":null,"zfsj":null,"gxsj":null,"csbj":null,"gsyw":"01"},{"id":"51000110000001962401","wfbh":null,"jdslb":null,"jdsbh":null,"gslx":"1","jszh":null,"hpzl":null,"wfgxsj":null,"gsjdsbh":"5104032400217092","gsajmc":"温亮机动车行驶超速50%以上案","gscflb":null,"gscfss":null,"gscfyj":null,"gsjsrxm":"温亮","gshpzl":"小型汽车","gshphm":"川DEC529","gscfjg":"罚款400元","gsjf":null,"gscfbm":"攀枝花市公安局西区分局交通巡逻警察大队","gscfrq":"2019年05月28日","gscfxzqh":null,"gsqymc":null,"gsfrxm":null,"gsshxydm":null,"lczt":null,"scsj":null,"gsrq":null,"gssj":null,"gsr":null,"gsbm":null,"zfsj":null,"gxsj":null,"csbj":null,"gsyw":"01"},{"id":"51000110000001948541","wfbh":null,"jdslb":null,"jdsbh":null,"gslx":"1","jszh":null,"hpzl":null,"wfgxsj":null,"gsjdsbh":"5104031424553950","gsajmc":"毛文军机动车行驶超速50%以上案","gscflb":null,"gscfss":null,"gscfyj":null,"gsjsrxm":"毛文军","gshpzl":"小型汽车","gshphm":"川DCT009","gscfjg":"罚款200元","gsjf":null,"gscfbm":"攀枝花市公安局西区分局交通巡逻警察大队","gscfrq":"2019年05月24日","gscfxzqh":null,"gsqymc":null,"gsfrxm":null,"gsshxydm":null,"lczt":null,"scsj":null,"gsrq":null,"gssj":null,"gsr":null,"gsbm":null,"zfsj":null,"gxsj":null,"csbj":null,"gsyw":"01"},{"id":"51000110000001990261","wfbh":null,"jdslb":null,"jdsbh":null,"gslx":"1","jszh":null,"hpzl":null,"wfgxsj":null,"gsjdsbh":"5105042400261195","gsajmc":"陈曦机动车行驶超速50%以上案","gscflb":null,"gscfss":null,"gscfyj":null,"gsjsrxm":"陈曦","gshpzl":"小型汽车","gshphm":"川EC3971","gscfjg":"罚款400元","gsjf":null,"gscfbm":"泸州市公安局交通警察支队三大队","gscfrq":"2019年06月03日","gscfxzqh":null,"gsqymc":null,"gsfrxm":null,"gsshxydm":null,"lczt":null,"scsj":null,"gsrq":null,"gssj":null,"gsr":null,"gsbm":null,"zfsj":null,"gxsj":null,"csbj":null,"gsyw":"01"},{"id":"51000110000001992201","wfbh":null,"jdslb":null,"jdsbh":null,"gslx":"1","jszh":null,"hpzl":null,"wfgxsj":null,"gsjdsbh":"5105042400261216","gsajmc":"何忠奎机动车行驶超速50%以上案","gscflb":null,"gscfss":null,"gscfyj":null,"gsjsrxm":"何忠奎","gshpzl":"小型汽车","gshphm":"川E0J960","gscfjg":"罚款600元","gsjf":null,"gscfbm":"泸州市公安局交通警察支队三大队","gscfrq":"2019年06月03日","gscfxzqh":null,"gsqymc":null,"gsfrxm":null,"gsshxydm":null,"lczt":null,"scsj":null,"gsrq":null,"gssj":null,"gsr":null,"gsbm":null,"zfsj":null,"gxsj":null,"csbj":null,"gsyw":"01"},{"id":"51000110000001989421","wfbh":null,"jdslb":null,"jdsbh":null,"gslx":"1","jszh":null,"hpzl":null,"wfgxsj":null,"gsjdsbh":"5105042400261160","gsajmc":"杨文杰机动车行驶超速50%以上案","gscflb":null,"gscfss":null,"gscfyj":null,"gsjsrxm":"杨文杰","gshpzl":"小型汽车","gshphm":"川ED3139","gscfjg":"罚款600元","gsjf":null,"gscfbm":"泸州市公安局交通警察支队三大队","gscfrq":"2019年06月03日","gscfxzqh":null,"gsqymc":null,"gsfrxm":null,"gsshxydm":null,"lczt":null,"scsj":null,"gsrq":null,"gssj":null,"gsr":null,"gsbm":null,"zfsj":null,"gxsj":null,"csbj":null,"gsyw":"01"},{"id":"51000110000001988381","wfbh":null,"jdslb":null,"jdsbh":null,"gslx":"1","jszh":null,"hpzl":null,"wfgxsj":null,"gsjdsbh":"5105042400261152","gsajmc":"刘姣机动车行驶超速50%以上案","gscflb":null,"gscfss":null,"gscfyj":null,"gsjsrxm":"刘姣","gshpzl":"小型汽车","gshphm":"川E3F278","gscfjg":"罚款600元","gsjf":null,"gscfbm":"泸州市公安局交通警察支队三大队","gscfrq":"2019年06月03日","gscfxzqh":null,"gsqymc":null,"gsfrxm":null,"gsshxydm":null,"lczt":null,"scsj":null,"gsrq":null,"gssj":null,"gsr":null,"gsbm":null,"zfsj":null,"gxsj":null,"csbj":null,"gsyw":"01"},{"id":"51000110000001764658","wfbh":null,"jdslb":null,"jdsbh":null,"gslx":"1","jszh":null,"hpzl":null,"wfgxsj":null,"gsjdsbh":"5105072400020655","gsajmc":"程兴隆无有效机动车驾驶证驾驶机动车案","gscflb":null,"gscfss":null,"gscfyj":null,"gsjsrxm":"程兴隆","gshpzl":"普通摩托车","gshphm":"川EV2325","gscfjg":"行政拘留3天，并处罚款1000元","gsjf":null,"gscfbm":"泸州市公安局纳溪区分局交通管理大队","gscfrq":"2019年04月11日","gscfxzqh":null,"gsqymc":null,"gsfrxm":null,"gsshxydm":null,"lczt":null,"scsj":null,"gsrq":null,"gssj":null,"gsr":null,"gsbm":null,"zfsj":null,"gxsj":null,"csbj":null,"gsyw":"01"},{"id":"51000110000001771183","wfbh":null,"jdslb":null,"jdsbh":null,"gslx":"1","jszh":null,"hpzl":null,"wfgxsj":null,"gsjdsbh":"5105072400020743","gsajmc":"李位生无有效机动车驾驶证驾驶机动车案","gscflb":null,"gscfss":null,"gscfyj":null,"gsjsrxm":"李位生","gshpzl":"普通摩托车","gshphm":"川QU5871","gscfjg":"行政拘留7天，并处罚款1000元","gsjf":null,"gscfbm":"泸州市公安局纳溪区分局交通管理大队","gscfrq":"2019年04月15日","gscfxzqh":null,"gsqymc":null,"gsfrxm":null,"gsshxydm":null,"lczt":null,"scsj":null,"gsrq":null,"gssj":null,"gsr":null,"gsbm":null,"zfsj":null,"gxsj":null,"csbj":null,"gsyw":"01"},{"id":"51000110000001826821","wfbh":null,"jdslb":null,"jdsbh":null,"gslx":"1","jszh":null,"hpzl":null,"wfgxsj":null,"gsjdsbh":"5105072400021033","gsajmc":"游光华无有效机动车驾驶证驾驶机动车案","gscflb":null,"gscfss":null,"gscfyj":null,"gsjsrxm":"游光华","gshpzl":"其他号牌","gshphm":"无","gscfjg":"行政拘留5天，并处罚款1000元","gsjf":null,"gscfbm":"泸州市公安局纳溪区分局交通管理大队","gscfrq":"2019年04月26日","gscfxzqh":null,"gsqymc":null,"gsfrxm":null,"gsshxydm":null,"lczt":null,"scsj":null,"gsrq":null,"gssj":null,"gsr":null,"gsbm":null,"zfsj":null,"gxsj":null,"csbj":null,"gsyw":"01"},{"id":"51000110000001793721","wfbh":null,"jdslb":null,"jdsbh":null,"gslx":"1","jszh":null,"hpzl":null,"wfgxsj":null,"gsjdsbh":"5105072400020874","gsajmc":"刘明权无有效机动车驾驶证驾驶机动车案","gscflb":null,"gscfss":null,"gscfyj":null,"gsjsrxm":"刘明权","gshpzl":"普通摩托车","gshphm":"川EP2280","gscfjg":"行政拘留3天，并处罚款1000元","gsjf":null,"gscfbm":"泸州市公安局纳溪区分局交通管理大队","gscfrq":"2019年04月22日","gscfxzqh":null,"gsqymc":null,"gsfrxm":null,"gsshxydm":null,"lczt":null,"scsj":null,"gsrq":null,"gssj":null,"gsr":null,"gsbm":null,"zfsj":null,"gxsj":null,"csbj":null,"gsyw":"01"},{"id":"51000110000001762643","wfbh":null,"jdslb":null,"jdsbh":null,"gslx":"1","jszh":null,"hpzl":null,"wfgxsj":null,"gsjdsbh":"5105072400020620","gsajmc":"王露瑶机动车行驶超速50%以上案","gscflb":null,"gscfss":null,"gscfyj":null,"gsjsrxm":"王露瑶","gshpzl":"小型汽车","gshphm":"川EU2W68","gscfjg":"罚款600元","gsjf":null,"gscfbm":"泸州市公安局纳溪区分局交通管理大队","gscfrq":"2019年04月10日","gscfxzqh":null,"gsqymc":null,"gsfrxm":null,"gsshxydm":null,"lczt":null,"scsj":null,"gsrq":null,"gssj":null,"gsr":null,"gsbm":null,"zfsj":null,"gxsj":null,"csbj":null,"gsyw":"01"},{"id":"51000110000001757271","wfbh":null,"jdslb":null,"jdsbh":null,"gslx":"1","jszh":null,"hpzl":null,"wfgxsj":null,"gsjdsbh":"5105072400020591","gsajmc":"郭刚无有效机动车驾驶证驾驶机动车案","gscflb":null,"gscfss":null,"gscfyj":null,"gsjsrxm":"郭刚","gshpzl":"普通摩托车","gshphm":"川ET6879","gscfjg":"行政拘留7天，并处罚款1000元","gsjf":null,"gscfbm":"泸州市公安局纳溪区分局交通管理大队","gscfrq":"2019年04月09日","gscfxzqh":null,"gsqymc":null,"gsfrxm":null,"gsshxydm":null,"lczt":null,"scsj":null,"gsrq":null,"gssj":null,"gsr":null,"gsbm":null,"zfsj":null,"gxsj":null,"csbj":null,"gsyw":"01"},{"id":"51000110000001764953","wfbh":null,"jdslb":null,"jdsbh":null,"gslx":"1","jszh":null,"hpzl":null,"wfgxsj":null,"gsjdsbh":"5105072400020663","gsajmc":"周州机动车行驶超速50%以上案","gscflb":null,"gscfss":null,"gscfyj":null,"gsjsrxm":"周州","gshpzl":"小型汽车","gshphm":"川EA22R9","gscfjg":"罚款300元","gsjf":null,"gscfbm":"泸州市公安局纳溪区分局交通管理大队","gscfrq":"2019年04月11日","gscfxzqh":null,"gsqymc":null,"gsfrxm":null,"gsshxydm":null,"lczt":null,"scsj":null,"gsrq":null,"gssj":null,"gsr":null,"gsbm":null,"zfsj":null,"gxsj":null,"csbj":null,"gsyw":"01"},{"id":"51000110000001771000","wfbh":null,"jdslb":null,"jdsbh":null,"gslx":"1","jszh":null,"hpzl":null,"wfgxsj":null,"gsjdsbh":"5105072400020719","gsajmc":"项琳机动车行驶超速50%以上案","gscflb":null,"gscfss":null,"gscfyj":null,"gsjsrxm":"项琳","gshpzl":"小型汽车","gshphm":"川EB99R3","gscfjg":"罚款400元","gsjf":null,"gscfbm":"泸州市公安局纳溪区分局交通管理大队","gscfrq":"2019年04月15日","gscfxzqh":null,"gsqymc":null,"gsfrxm":null,"gsshxydm":null,"lczt":null,"scsj":null,"gsrq":null,"gssj":null,"gsr":null,"gsbm":null,"zfsj":null,"gxsj":null,"csbj":null,"gsyw":"01"},{"id":"51000110000001829521","wfbh":null,"jdslb":null,"jdsbh":null,"gslx":"1","jszh":null,"hpzl":null,"wfgxsj":null,"gsjdsbh":"510507240002105X","gsajmc":"毛仕全无有效机动车驾驶证驾驶机动车案","gscflb":null,"gscfss":null,"gscfyj":null,"gsjsrxm":"毛仕全","gshpzl":"普通摩托车","gshphm":"川ER9612","gscfjg":"行政拘留12天，并处罚款1000元","gsjf":null,"gscfbm":"泸州市公安局纳溪区分局交通管理大队","gscfrq":"2019年04月26日","gscfxzqh":null,"gsqymc":null,"gsfrxm":null,"gsshxydm":null,"lczt":null,"scsj":null,"gsrq":null,"gssj":null,"gsr":null,"gsbm":null,"zfsj":null,"gxsj":null,"csbj":null,"gsyw":"01"},{"id":"51000110000001771771","wfbh":null,"jdslb":null,"jdsbh":null,"gslx":"1","jszh":null,"hpzl":null,"wfgxsj":null,"gsjdsbh":"5105072400020786","gsajmc":"王文泽无有效机动车驾驶证驾驶机动车案","gscflb":null,"gscfss":null,"gscfyj":null,"gsjsrxm":"王文泽","gshpzl":"普通摩托车","gshphm":"无","gscfjg":"行政拘留3天，并处罚款1000元","gsjf":null,"gscfbm":"泸州市公安局纳溪区分局交通管理大队","gscfrq":"2019年04月16日","gscfxzqh":null,"gsqymc":null,"gsfrxm":null,"gsshxydm":null,"lczt":null,"scsj":null,"gsrq":null,"gssj":null,"gsr":null,"gsbm":null,"zfsj":null,"gxsj":null,"csbj":null,"gsyw":"01"},{"id":"51000110000001786401","wfbh":null,"jdslb":null,"jdsbh":null,"gslx":"1","jszh":null,"hpzl":null,"wfgxsj":null,"gsjdsbh":"5105071408275295","gsajmc":"青山机动车驾驶人违反道路通行规定案","gscflb":null,"gscfss":null,"gscfyj":null,"gsjsrxm":"青山","gshpzl":"大型汽车","gshphm":"川E65597","gscfjg":"罚款20元","gsjf":null,"gscfbm":"泸州市公安局纳溪区分局交通管理大队","gscfrq":"2019年04月19日","gscfxzqh":null,"gsqymc":null,"gsfrxm":null,"gsshxydm":null,"lczt":null,"scsj":null,"gsrq":null,"gssj":null,"gsr":null,"gsbm":null,"zfsj":null,"gxsj":null,"csbj":null,"gsyw":"01"},{"id":"51000110000001761984","wfbh":null,"jdslb":null,"jdsbh":null,"gslx":"1","jszh":null,"hpzl":null,"wfgxsj":null,"gsjdsbh":"5105072400020604","gsajmc":"姜斌无有效机动车驾驶证驾驶机动车案","gscflb":null,"gscfss":null,"gscfyj":null,"gsjsrxm":"姜斌","gshpzl":"其他号牌","gshphm":"无","gscfjg":"行政拘留3天，并处罚款1000元","gsjf":null,"gscfbm":"泸州市公安局纳溪区分局交通管理大队","gscfrq":"2019年04月10日","gscfxzqh":null,"gsqymc":null,"gsfrxm":null,"gsshxydm":null,"lczt":null,"scsj":null,"gsrq":null,"gssj":null,"gsr":null,"gsbm":null,"zfsj":null,"gxsj":null,"csbj":null,"gsyw":"01"}],"first":true,"sort":null,"pageSize":20,"totalCount":2444,"pageNo":1,"last":false,"totalPages":123,"resultSize":20}},"code":200}